{
  "HTML": {
    "_doc": "HTML is the standard markup language for creating Web pages.",
    "headings": "HTML headings are titles or subtitles that you want to display on a webpage. HTML headings are defined with the h1  to  h6  tags.  h1  defines the most important heading.  h6  defines the least important heading.",
    "paragraphs": "A paragraph always starts on a new line, and is usually a block of text. The HTML  p  element defines a paragraph. A paragraph always starts on a new line, and browsers automatically add some white space (a margin) before and after a paragraph.",
    "links": "Links are found in nearly all web pages. Links allow users to click their way from page to page. HTML links are hyperlinks. You can click on a link and jump to another document. When you move the mouse over a link, the mouse arrow will turn into a little hand.",
    "images": "Images can improve the design and the appearance of a web page. The HTML  img  tag is used to embed an image in a web page. Images are not technically inserted into a web page; images are linked to web pages. The  img  tag creates a holding space for the referenced image. The  img  tag is empty, it contains attributes only, and does not have a closing tag.",
    "tables": "HTML tables allow web developers to arrange data into rows and columns. The  table  tag defines an HTML table. Each table row is defined with a  tr  tag. Each table header is defined with a  th  tag. Each table data/cell is defined with a  td  tag. By default, the text in  th  elements are bold and centered. By default, the text in  td  elements are regular and left-aligned."
  },
  "CSS": {
    "_doc": "CSS is a language that describes the style of an HTML document. CSS describes how HTML elements should be displayed.",
    "selectors": "CSS selectors are used to find (or select) the HTML elements you want to style. The element selector selects HTML elements based on the element name.",
    "colors": "Colors are specified using predefined color names, or RGB, HEX, HSL, RGBA, HSLA values.",
    "boxes": "All HTML elements can be considered as boxes. In CSS, the term box model is used when talking about design and layout. The CSS box model is essentially a box that wraps around every HTML element. It consists of: margins, borders, padding, and the actual content.",
    "display": "The display property is the most important CSS property for controlling layout. The display property specifies if/how an element is displayed. Every HTML element has a default display value depending on what type of element it is. The default display value for most elements is block or inline.",
    "float": "The CSS float property specifies how an element should float. The CSS clear property specifies what elements can float beside the cleared element and on which side."
  },
  "JavaScript": {
    "_doc": "JavaScript is the programming language of HTML and the Web. JavaScript is easy to learn.",
    "functions": "A JavaScript function is a block of code designed to perform a particular task. A JavaScript function is executed when something invokes it (calls it). A JavaScript function is defined with the function keyword, followed by a name, followed by parentheses (). Function names can contain letters, digits, underscores, and dollar signs (same rules as variables). The parentheses may include parameter names separated by commas: (parameter1, parameter2, ...) The code to be executed, by the function, is placed inside curly brackets: {}" ,
    "object": "Objects are variables too. But objects can contain many values.",
    "scope": "Scope determines the accessibility (visibility) of variables. JavaScript has function scope: Each function creates a new scope. Scope determines the accessibility (visibility) of these variables. Variables defined inside a function are not accessible (visible) from outside the function.",
    "events": "HTML events are things that happen to HTML elements. When JavaScript is used in HTML pages, JavaScript can react on these events.",
    "hoisting": "Hoisting is JavaScript's default behavior of moving declarations to the top."
  }
}